<?xml version="1.0" encoding="utf-8"?>
<!-- Generator: Adobe Illustrator 21.0.2, SVG Export Plug-In . SVG Version: 6.00 Build 0)  -->
<svg version="1.1" id="logo.svg" xmlns="http://www.w3.org/2000/svg" xmlns:xlink="http://www.w3.org/1999/xlink" x="0px" y="0px"
	 viewBox="0 0 190 34" style="enable-background:new 0 0 190 34;" xml:space="preserve">
<style type="text/css">
	.st0{fill:#1266FB;}
	.st1{fill:#0B24FB;}
	.st2{fill:#2DFFFE;}
	.st3{fill:#23CCFC;}
	.st4{fill:#0C32FB;}
	.st5{fill:#1A99FC;}
	.st6{fill:#303047;}
</style>
<g>
	<path id="_01" class="st0" d="M0.6,8.6l14.8-8l14.2,8v17.2l-14.2,8l-14.8-8V8.6z"/>
	<path id="_02" class="st1" d="M15,0v17L0,8.3L15,0z"/>
	<path id="_03" class="st2" d="M30,8l-15,9V0L30,8z"/>
	<path id="_04" class="st3" d="M30,27L15,17l15-9V27z"/>
	<path id="_05" class="st4" d="M0,8.3L15,17L0,26V8.3z"/>
	<path id="_06" class="st0" d="M0,26l15-9v17L0,26z"/>
	<path id="_07" class="st5" d="M30,27L15,17v17L30,27z"/>
</g>
<path id="PLATFORM.IO" class="st6" d="M49.2,19.9c0.7,0,1.4-0.1,2.1-0.3c0.6-0.2,1.1-0.4,1.5-0.8c0.4-0.3,0.7-0.8,0.9-1.3
	c0.2-0.5,0.3-1.1,0.3-1.6c0-0.5-0.1-1-0.3-1.5c-0.2-0.5-0.5-0.9-0.9-1.2c-0.4-0.4-0.9-0.6-1.5-0.8c-0.7-0.2-1.4-0.3-2.2-0.3H45v11.7
	h2.8v-3.9H49.2L49.2,19.9z M47.8,14.2h1.4c0.3,0,0.6,0,0.9,0.1c0.2,0.1,0.5,0.2,0.6,0.4c0.2,0.2,0.3,0.4,0.4,0.6
	c0.1,0.2,0.1,0.5,0.1,0.7c0,0.5-0.1,1-0.5,1.4c-0.4,0.4-1,0.6-1.6,0.5h-1.4C47.8,17.9,47.8,14.2,47.8,14.2z M61.8,12.1h-2.8v11.7
	h7.2v-2.2h-4.4V12.1z M77.7,12.1h-2.8l-4.6,11.7h2.2c0.2,0,0.4-0.1,0.6-0.2c0.1-0.1,0.3-0.2,0.3-0.4l0.7-2h4.5l0.7,2
	c0.1,0.2,0.2,0.3,0.3,0.4c0.2,0.1,0.4,0.2,0.6,0.2h2.1L77.7,12.1z M75.7,16.2c0.1-0.2,0.2-0.4,0.3-0.7c0.1-0.3,0.2-0.6,0.3-0.9
	c0.1,0.3,0.2,0.6,0.3,0.9c0.1,0.3,0.2,0.5,0.2,0.7l1.1,3.2h-3.3L75.7,16.2z M84.7,12.1v2.2h3.4v9.6h2.8v-9.6h3.4v-2.2H84.7
	L84.7,12.1z M99,12.1v11.7h2.8v-4.6h4.1v-2.1h-4.1v-3h4.9v-2.1L99,12.1L99,12.1z M123,15.6c-0.3-0.7-0.7-1.4-1.3-1.9
	c-0.6-0.5-1.2-1-2-1.3c-0.8-0.3-1.7-0.5-2.5-0.5c-0.9,0-1.7,0.1-2.5,0.5c-0.7,0.3-1.4,0.7-2,1.3c-0.5,0.5-1,1.2-1.3,1.9
	c-0.6,1.5-0.6,3.2,0,4.7c0.3,0.7,0.7,1.4,1.3,1.9c0.6,0.6,1.2,1,2,1.3c1.6,0.6,3.4,0.6,5.1,0c0.7-0.3,1.4-0.7,2-1.3
	c0.5-0.5,1-1.2,1.3-1.9C123.6,18.8,123.6,17.2,123,15.6z M120.4,19.6c-0.1,0.4-0.4,0.8-0.7,1.2c-0.3,0.3-0.6,0.6-1.1,0.7
	c-0.5,0.2-0.9,0.3-1.4,0.3c-0.5,0-1-0.1-1.4-0.3c-0.4-0.2-0.8-0.4-1.1-0.7c-0.3-0.3-0.5-0.7-0.7-1.2c-0.3-1-0.3-2.1,0-3.1
	c0.1-0.4,0.4-0.8,0.7-1.2c0.3-0.3,0.7-0.6,1.1-0.7c0.5-0.2,0.9-0.3,1.4-0.3c0.5,0,1,0.1,1.4,0.3c0.4,0.2,0.8,0.4,1.1,0.7
	c0.3,0.3,0.5,0.7,0.7,1.2C120.7,17.4,120.7,18.5,120.4,19.6L120.4,19.6z M131.9,19.5c0.2,0,0.3,0,0.5,0.1c0.1,0.1,0.2,0.2,0.3,0.3
	l2,3.4c0.2,0.3,0.6,0.5,1,0.5h2.5l-2.5-4.1c-0.1-0.2-0.3-0.4-0.4-0.5c-0.2-0.1-0.3-0.2-0.5-0.3c0.4-0.1,0.7-0.3,1-0.6
	c0.3-0.2,0.5-0.5,0.8-0.8c0.2-0.3,0.4-0.6,0.5-0.9c0.1-0.4,0.2-0.7,0.2-1.1c0-0.5-0.1-0.9-0.3-1.4c-0.2-0.4-0.5-0.8-0.8-1.1
	c-0.4-0.3-1-0.6-1.5-0.7c-0.7-0.2-1.5-0.3-2.2-0.3h-3.9v11.7h2.8v-4.3L131.9,19.5L131.9,19.5z M131.2,14.2h1.1
	c0.6,0,1.1,0.1,1.6,0.4c0.3,0.3,0.5,0.7,0.5,1.2c0,0.2,0,0.5-0.1,0.7c-0.1,0.2-0.2,0.4-0.4,0.6c-0.2,0.2-0.4,0.3-0.7,0.4
	c-0.3,0.1-0.6,0.1-1,0.1h-1.1L131.2,14.2L131.2,14.2z M149,18.5l-3.1-6c0-0.1-0.1-0.2-0.2-0.2c-0.1-0.1-0.1-0.1-0.2-0.1
	c-0.1,0-0.2,0-0.2,0h-2.4v11.7h2.4v-6.8c0-0.2,0-0.3,0-0.5s0-0.4-0.1-0.6l3.2,6c0.1,0.2,0.2,0.3,0.4,0.4c0.2,0.1,0.4,0.1,0.6,0.1
	h0.4c0.2,0,0.4,0,0.6-0.1c0.2-0.1,0.3-0.2,0.4-0.4l3.2-6c0,0.4,0,0.7,0,1.1v6.8h2.4V12.1h-2.4c-0.1,0-0.2,0-0.2,0
	c-0.1,0-0.1,0.1-0.2,0.1c-0.1,0.1-0.1,0.2-0.2,0.2l-3.1,5.9c-0.1,0.2-0.2,0.4-0.3,0.7c-0.1,0.2-0.2,0.5-0.3,0.7
	c-0.1-0.2-0.2-0.5-0.3-0.7C149.2,18.9,149.1,18.7,149,18.5L149,18.5L149,18.5z M161.5,23.2c0.1,0.3,0.4,0.6,0.8,0.7
	c0.4,0.1,0.8,0.1,1.1,0c0.2-0.1,0.3-0.2,0.5-0.3c0.1-0.1,0.2-0.3,0.3-0.4c0.1-0.2,0.1-0.4,0.1-0.5c0-0.4-0.1-0.7-0.4-1
	c-0.1-0.1-0.3-0.2-0.5-0.3c-0.5-0.2-1.2-0.1-1.6,0.3c-0.1,0.1-0.2,0.3-0.3,0.4c-0.1,0.2-0.1,0.4-0.1,0.5
	C161.4,22.8,161.5,23,161.5,23.2L161.5,23.2z M172.4,12.1h-2.8v11.7h2.8V12.1L172.4,12.1z M189.6,15.6c-0.3-0.7-0.7-1.4-1.3-1.9
	c-0.6-0.5-1.2-1-2-1.3c-0.8-0.3-1.7-0.5-2.5-0.5c-0.9,0-1.7,0.1-2.5,0.5c-0.7,0.3-1.4,0.7-2,1.3c-0.5,0.5-1,1.2-1.3,1.9
	c-0.6,1.5-0.6,3.2,0,4.7c0.3,0.7,0.7,1.4,1.3,1.9c0.6,0.6,1.2,1,2,1.3c1.6,0.6,3.4,0.6,5.1,0c0.7-0.3,1.4-0.7,2-1.3
	c0.5-0.5,1-1.2,1.3-1.9C190.2,18.8,190.2,17.2,189.6,15.6L189.6,15.6z M186.9,19.6c-0.1,0.4-0.4,0.8-0.7,1.2
	c-0.3,0.3-0.6,0.6-1.1,0.7c-0.5,0.2-0.9,0.3-1.4,0.3c-0.5,0-1-0.1-1.4-0.3c-0.4-0.2-0.8-0.4-1.1-0.7c-0.3-0.3-0.5-0.7-0.7-1.2
	c-0.3-1-0.3-2.1,0-3.1c0.1-0.4,0.4-0.8,0.7-1.2c0.3-0.3,0.7-0.6,1.1-0.7c0.5-0.2,0.9-0.3,1.4-0.3c0.5,0,1,0.1,1.4,0.3
	c0.4,0.2,0.8,0.4,1.1,0.7c0.3,0.3,0.5,0.7,0.7,1.2C187.2,17.5,187.2,18.5,186.9,19.6L186.9,19.6z"/>
</svg>
