<?xml version="1.0" encoding="utf-8"?>
<!-- Generator: Adobe Illustrator 21.0.2, SVG Export Plug-In . SVG Version: 6.00 Build 0)  -->
<svg version="1.1" id="Layer_1" xmlns="http://www.w3.org/2000/svg" xmlns:xlink="http://www.w3.org/1999/xlink" x="0px" y="0px"
	 viewBox="0 0 511.5 511.5" style="enable-background:new 0 0 511.5 511.5;" xml:space="preserve">
<style type="text/css">
	.st0{fill:#1DADEB;}
</style>
<path class="st0" d="M357,49.2c-59.3,0.9-106,52.1-106,111.4v14.4C145.1,156.1,93,127.3,35.5,67.1c-34.1,66.5,3.6,122.2,44.9,152.7
	c-27.8,0-51.2-3.6-69.2-19.8c-1.8-0.9-3.6,0-2.7,1.8c15.3,55.7,67.4,96.1,107.8,107.8c-36.8,0-61.1,5.4-87.1-10.8
	c-1.8-0.9-3.6,0-2.7,1.8c19.8,54.8,59.3,71.9,116.8,71.9c-28.7,21.6-67.4,43.1-140.1,44.9c-2.7,0-4.5,3.6-1.8,5.4
	c26.9,22.5,93.4,39.5,186.8,39.5c153.6,0,278.5-136.5,278.5-305.4v-9c24.3-9,37.7-30.5,44.9-52.1c0-0.9-0.9-1.8-1.8-1.8l-51.2,18
	c-0.9,0-1.8-1.8-0.9-2.7c21.6-17.1,37.7-38.6,44.9-59.3c0,0-0.9-0.9-1.8-0.9c-24.3,9.9-47.6,19.8-65.6,25.2c-2.7,0.9-6.3,0.9-9-0.9
	C414.5,67.1,379.5,49.2,357,49.2"/>
</svg>
